{
  "href" : "https://api.spotify.com/v1/me/tracks?offset=0&limit=10",
  "items" : [ {
    "added_at" : "2016-04-04T19:10:17Z",
    "track" : {
      "album" : {
        "album_type" : "album",
        "available_markets" : [ "CA", "MX", "US" ],
        "external_urls" : {
          "spotify" : "https://open.spotify.com/album/2f4cvZmkZqlzjNf7bcmeCb"
        },
        "href" : "https://api.spotify.com/v1/albums/2f4cvZmkZqlzjNf7bcmeCb",
        "id" : "2f4cvZmkZqlzjNf7bcmeCb",
        "images" : [ {
          "height" : 640,
          "url" : "https://i.scdn.co/image/443372cd2c6d4245833fb46ac1c5dabca00c78a9",
          "width" : 640
        }, {
          "height" : 300,
          "url" : "https://i.scdn.co/image/d2351cd8009379e06421c31fe7de3f87178b4e66",
          "width" : 300
        }, {
          "height" : 64,
          "url" : "https://i.scdn.co/image/4c9fcc4c6f9408a4111f963143d8d13fb58df2b3",
          "width" : 64
        } ],
        "name" : "The Life Of Pablo",
        "type" : "album",
        "uri" : "spotify:album:2f4cvZmkZqlzjNf7bcmeCb"
      },
      "artists" : [ {
        "external_urls" : {
          "spotify" : "https://open.spotify.com/artist/5K4W6rqBFWDnAN6FQUkS6x"
        },
        "href" : "https://api.spotify.com/v1/artists/5K4W6rqBFWDnAN6FQUkS6x",
        "id" : "5K4W6rqBFWDnAN6FQUkS6x",
        "name" : "Kanye West",
        "type" : "artist",
        "uri" : "spotify:artist:5K4W6rqBFWDnAN6FQUkS6x"
      } ],
      "available_markets" : [ "CA", "MX", "US" ],
      "disc_number" : 1,
      "duration_ms" : 320680,
      "explicit" : true,
      "external_ids" : {
        "isrc" : "USUM71603065"
      },
      "external_urls" : {
        "spotify" : "https://open.spotify.com/track/6CbEf47L2P4wEKY96uu6W8"
      },
      "href" : "https://api.spotify.com/v1/tracks/6CbEf47L2P4wEKY96uu6W8",
      "id" : "6CbEf47L2P4wEKY96uu6W8",
      "name" : "Ultralight Beam",
      "popularity" : 74,
      "preview_url" : "https://p.scdn.co/mp3-preview/da3dbe49f7e1a7cb3a978c5f5e405f054571b84d",
      "track_number" : 1,
      "type" : "track",
      "uri" : "spotify:track:6CbEf47L2P4wEKY96uu6W8"
    }
  }, {
    "added_at" : "2016-04-04T19:10:17Z",
    "track" : {
      "album" : {
        "album_type" : "album",
        "available_markets" : [ "CA", "MX", "US" ],
        "external_urls" : {
          "spotify" : "https://open.spotify.com/album/2f4cvZmkZqlzjNf7bcmeCb"
        },
        "href" : "https://api.spotify.com/v1/albums/2f4cvZmkZqlzjNf7bcmeCb",
        "id" : "2f4cvZmkZqlzjNf7bcmeCb",
        "images" : [ {
          "height" : 640,
          "url" : "https://i.scdn.co/image/443372cd2c6d4245833fb46ac1c5dabca00c78a9",
          "width" : 640
        }, {
          "height" : 300,
          "url" : "https://i.scdn.co/image/d2351cd8009379e06421c31fe7de3f87178b4e66",
          "width" : 300
        }, {
          "height" : 64,
          "url" : "https://i.scdn.co/image/4c9fcc4c6f9408a4111f963143d8d13fb58df2b3",
          "width" : 64
        } ],
        "name" : "The Life Of Pablo",
        "type" : "album",
        "uri" : "spotify:album:2f4cvZmkZqlzjNf7bcmeCb"
      },
      "artists" : [ {
        "external_urls" : {
          "spotify" : "https://open.spotify.com/artist/5K4W6rqBFWDnAN6FQUkS6x"
        },
        "href" : "https://api.spotify.com/v1/artists/5K4W6rqBFWDnAN6FQUkS6x",
        "id" : "5K4W6rqBFWDnAN6FQUkS6x",
        "name" : "Kanye West",
        "type" : "artist",
        "uri" : "spotify:artist:5K4W6rqBFWDnAN6FQUkS6x"
      } ],
      "available_markets" : [ "CA", "MX", "US" ],
      "disc_number" : 1,
      "duration_ms" : 135920,
      "explicit" : true,
      "external_ids" : {
        "isrc" : "USUM71603067"
      },
      "external_urls" : {
        "spotify" : "https://open.spotify.com/track/7GwMPc1Id4sAotVekDP4b2"
      },
      "href" : "https://api.spotify.com/v1/tracks/7GwMPc1Id4sAotVekDP4b2",
      "id" : "7GwMPc1Id4sAotVekDP4b2",
      "name" : "Father Stretch My Hands Pt. 1",
      "popularity" : 77,
      "preview_url" : "https://p.scdn.co/mp3-preview/fc62630e027e41a0c016f722bcd47ed65caabc2b",
      "track_number" : 2,
      "type" : "track",
      "uri" : "spotify:track:7GwMPc1Id4sAotVekDP4b2"
    }
  }, {
    "added_at" : "2016-04-04T19:10:17Z",
    "track" : {
      "album" : {
        "album_type" : "album",
        "available_markets" : [ "CA", "MX", "US" ],
        "external_urls" : {
          "spotify" : "https://open.spotify.com/album/2f4cvZmkZqlzjNf7bcmeCb"
        },
        "href" : "https://api.spotify.com/v1/albums/2f4cvZmkZqlzjNf7bcmeCb",
        "id" : "2f4cvZmkZqlzjNf7bcmeCb",
        "images" : [ {
          "height" : 640,
          "url" : "https://i.scdn.co/image/443372cd2c6d4245833fb46ac1c5dabca00c78a9",
          "width" : 640
        }, {
          "height" : 300,
          "url" : "https://i.scdn.co/image/d2351cd8009379e06421c31fe7de3f87178b4e66",
          "width" : 300
        }, {
          "height" : 64,
          "url" : "https://i.scdn.co/image/4c9fcc4c6f9408a4111f963143d8d13fb58df2b3",
          "width" : 64
        } ],
        "name" : "The Life Of Pablo",
        "type" : "album",
        "uri" : "spotify:album:2f4cvZmkZqlzjNf7bcmeCb"
      },
      "artists" : [ {
        "external_urls" : {
          "spotify" : "https://open.spotify.com/artist/5K4W6rqBFWDnAN6FQUkS6x"
        },
        "href" : "https://api.spotify.com/v1/artists/5K4W6rqBFWDnAN6FQUkS6x",
        "id" : "5K4W6rqBFWDnAN6FQUkS6x",
        "name" : "Kanye West",
        "type" : "artist",
        "uri" : "spotify:artist:5K4W6rqBFWDnAN6FQUkS6x"
      } ],
      "available_markets" : [ "CA", "MX", "US" ],
      "disc_number" : 1,
      "duration_ms" : 130293,
      "explicit" : true,
      "external_ids" : {
        "isrc" : "USUM71603069"
      },
      "external_urls" : {
        "spotify" : "https://open.spotify.com/track/6BrppQL1SAkKVWqp6w0nNm"
      },
      "href" : "https://api.spotify.com/v1/tracks/6BrppQL1SAkKVWqp6w0nNm",
      "id" : "6BrppQL1SAkKVWqp6w0nNm",
      "name" : "Pt. 2",
      "popularity" : 76,
      "preview_url" : "https://p.scdn.co/mp3-preview/7e62b61591f3c30186798a3bca73acb5f6df125d",
      "track_number" : 3,
      "type" : "track",
      "uri" : "spotify:track:6BrppQL1SAkKVWqp6w0nNm"
    }
  }, {
    "added_at" : "2016-04-04T19:10:17Z",
    "track" : {
      "album" : {
        "album_type" : "album",
        "available_markets" : [ "CA", "MX", "US" ],
        "external_urls" : {
          "spotify" : "https://open.spotify.com/album/2f4cvZmkZqlzjNf7bcmeCb"
        },
        "href" : "https://api.spotify.com/v1/albums/2f4cvZmkZqlzjNf7bcmeCb",
        "id" : "2f4cvZmkZqlzjNf7bcmeCb",
        "images" : [ {
          "height" : 640,
          "url" : "https://i.scdn.co/image/443372cd2c6d4245833fb46ac1c5dabca00c78a9",
          "width" : 640
        }, {
          "height" : 300,
          "url" : "https://i.scdn.co/image/d2351cd8009379e06421c31fe7de3f87178b4e66",
          "width" : 300
        }, {
          "height" : 64,
          "url" : "https://i.scdn.co/image/4c9fcc4c6f9408a4111f963143d8d13fb58df2b3",
          "width" : 64
        } ],
        "name" : "The Life Of Pablo",
        "type" : "album",
        "uri" : "spotify:album:2f4cvZmkZqlzjNf7bcmeCb"
      },
      "artists" : [ {
        "external_urls" : {
          "spotify" : "https://open.spotify.com/artist/5K4W6rqBFWDnAN6FQUkS6x"
        },
        "href" : "https://api.spotify.com/v1/artists/5K4W6rqBFWDnAN6FQUkS6x",
        "id" : "5K4W6rqBFWDnAN6FQUkS6x",
        "name" : "Kanye West",
        "type" : "artist",
        "uri" : "spotify:artist:5K4W6rqBFWDnAN6FQUkS6x"
      } ],
      "available_markets" : [ "CA", "MX", "US" ],
      "disc_number" : 1,
      "duration_ms" : 196040,
      "explicit" : true,
      "external_ids" : {
        "isrc" : "USUM71603020"
      },
      "external_urls" : {
        "spotify" : "https://open.spotify.com/track/4BsFUZlt8vQ1wH3vlmBu8c"
      },
      "href" : "https://api.spotify.com/v1/tracks/4BsFUZlt8vQ1wH3vlmBu8c",
      "id" : "4BsFUZlt8vQ1wH3vlmBu8c",
      "name" : "Famous",
      "popularity" : 74,
      "preview_url" : "https://p.scdn.co/mp3-preview/a67aa1a17cac747a443a057dbf505f7d602e9e08",
      "track_number" : 4,
      "type" : "track",
      "uri" : "spotify:track:4BsFUZlt8vQ1wH3vlmBu8c"
    }
  }, {
    "added_at" : "2016-04-04T19:10:17Z",
    "track" : {
      "album" : {
        "album_type" : "album",
        "available_markets" : [ "CA", "MX", "US" ],
        "external_urls" : {
          "spotify" : "https://open.spotify.com/album/2f4cvZmkZqlzjNf7bcmeCb"
        },
        "href" : "https://api.spotify.com/v1/albums/2f4cvZmkZqlzjNf7bcmeCb",
        "id" : "2f4cvZmkZqlzjNf7bcmeCb",
        "images" : [ {
          "height" : 640,
          "url" : "https://i.scdn.co/image/443372cd2c6d4245833fb46ac1c5dabca00c78a9",
          "width" : 640
        }, {
          "height" : 300,
          "url" : "https://i.scdn.co/image/d2351cd8009379e06421c31fe7de3f87178b4e66",
          "width" : 300
        }, {
          "height" : 64,
          "url" : "https://i.scdn.co/image/4c9fcc4c6f9408a4111f963143d8d13fb58df2b3",
          "width" : 64
        } ],
        "name" : "The Life Of Pablo",
        "type" : "album",
        "uri" : "spotify:album:2f4cvZmkZqlzjNf7bcmeCb"
      },
      "artists" : [ {
        "external_urls" : {
          "spotify" : "https://open.spotify.com/artist/5K4W6rqBFWDnAN6FQUkS6x"
        },
        "href" : "https://api.spotify.com/v1/artists/5K4W6rqBFWDnAN6FQUkS6x",
        "id" : "5K4W6rqBFWDnAN6FQUkS6x",
        "name" : "Kanye West",
        "type" : "artist",
        "uri" : "spotify:artist:5K4W6rqBFWDnAN6FQUkS6x"
      } ],
      "available_markets" : [ "CA", "MX", "US" ],
      "disc_number" : 1,
      "duration_ms" : 147240,
      "explicit" : true,
      "external_ids" : {
        "isrc" : "USUM71603070"
      },
      "external_urls" : {
        "spotify" : "https://open.spotify.com/track/6G16j2Y8y2fMqvxMYFItvW"
      },
      "href" : "https://api.spotify.com/v1/tracks/6G16j2Y8y2fMqvxMYFItvW",
      "id" : "6G16j2Y8y2fMqvxMYFItvW",
      "name" : "Feedback",
      "popularity" : 72,
      "preview_url" : "https://p.scdn.co/mp3-preview/8dcfe55ecdfc510a968406ec9b5785b0b6bb829d",
      "track_number" : 5,
      "type" : "track",
      "uri" : "spotify:track:6G16j2Y8y2fMqvxMYFItvW"
    }
  }, {
    "added_at" : "2016-04-04T19:10:17Z",
    "track" : {
      "album" : {
        "album_type" : "album",
        "available_markets" : [ "CA", "MX", "US" ],
        "external_urls" : {
          "spotify" : "https://open.spotify.com/album/2f4cvZmkZqlzjNf7bcmeCb"
        },
        "href" : "https://api.spotify.com/v1/albums/2f4cvZmkZqlzjNf7bcmeCb",
        "id" : "2f4cvZmkZqlzjNf7bcmeCb",
        "images" : [ {
          "height" : 640,
          "url" : "https://i.scdn.co/image/443372cd2c6d4245833fb46ac1c5dabca00c78a9",
          "width" : 640
        }, {
          "height" : 300,
          "url" : "https://i.scdn.co/image/d2351cd8009379e06421c31fe7de3f87178b4e66",
          "width" : 300
        }, {
          "height" : 64,
          "url" : "https://i.scdn.co/image/4c9fcc4c6f9408a4111f963143d8d13fb58df2b3",
          "width" : 64
        } ],
        "name" : "The Life Of Pablo",
        "type" : "album",
        "uri" : "spotify:album:2f4cvZmkZqlzjNf7bcmeCb"
      },
      "artists" : [ {
        "external_urls" : {
          "spotify" : "https://open.spotify.com/artist/5K4W6rqBFWDnAN6FQUkS6x"
        },
        "href" : "https://api.spotify.com/v1/artists/5K4W6rqBFWDnAN6FQUkS6x",
        "id" : "5K4W6rqBFWDnAN6FQUkS6x",
        "name" : "Kanye West",
        "type" : "artist",
        "uri" : "spotify:artist:5K4W6rqBFWDnAN6FQUkS6x"
      } ],
      "available_markets" : [ "CA", "MX", "US" ],
      "disc_number" : 1,
      "duration_ms" : 131773,
      "explicit" : true,
      "external_ids" : {
        "isrc" : "USUM71603073"
      },
      "external_urls" : {
        "spotify" : "https://open.spotify.com/track/5cljAxD4iQ4cwWM3Lc49Ju"
      },
      "href" : "https://api.spotify.com/v1/tracks/5cljAxD4iQ4cwWM3Lc49Ju",
      "id" : "5cljAxD4iQ4cwWM3Lc49Ju",
      "name" : "Low Lights",
      "popularity" : 69,
      "preview_url" : "https://p.scdn.co/mp3-preview/07c4fe8fe7e1ec9d8a3c36d59eda814d625c3d48",
      "track_number" : 6,
      "type" : "track",
      "uri" : "spotify:track:5cljAxD4iQ4cwWM3Lc49Ju"
    }
  }, {
    "added_at" : "2016-04-04T19:10:17Z",
    "track" : {
      "album" : {
        "album_type" : "album",
        "available_markets" : [ "CA", "MX", "US" ],
        "external_urls" : {
          "spotify" : "https://open.spotify.com/album/2f4cvZmkZqlzjNf7bcmeCb"
        },
        "href" : "https://api.spotify.com/v1/albums/2f4cvZmkZqlzjNf7bcmeCb",
        "id" : "2f4cvZmkZqlzjNf7bcmeCb",
        "images" : [ {
          "height" : 640,
          "url" : "https://i.scdn.co/image/443372cd2c6d4245833fb46ac1c5dabca00c78a9",
          "width" : 640
        }, {
          "height" : 300,
          "url" : "https://i.scdn.co/image/d2351cd8009379e06421c31fe7de3f87178b4e66",
          "width" : 300
        }, {
          "height" : 64,
          "url" : "https://i.scdn.co/image/4c9fcc4c6f9408a4111f963143d8d13fb58df2b3",
          "width" : 64
        } ],
        "name" : "The Life Of Pablo",
        "type" : "album",
        "uri" : "spotify:album:2f4cvZmkZqlzjNf7bcmeCb"
      },
      "artists" : [ {
        "external_urls" : {
          "spotify" : "https://open.spotify.com/artist/5K4W6rqBFWDnAN6FQUkS6x"
        },
        "href" : "https://api.spotify.com/v1/artists/5K4W6rqBFWDnAN6FQUkS6x",
        "id" : "5K4W6rqBFWDnAN6FQUkS6x",
        "name" : "Kanye West",
        "type" : "artist",
        "uri" : "spotify:artist:5K4W6rqBFWDnAN6FQUkS6x"
      } ],
      "available_markets" : [ "CA", "MX", "US" ],
      "disc_number" : 1,
      "duration_ms" : 199866,
      "explicit" : true,
      "external_ids" : {
        "isrc" : "USUM71603074"
      },
      "external_urls" : {
        "spotify" : "https://open.spotify.com/track/4dmCMIu39DqyalBCENwSxk"
      },
      "href" : "https://api.spotify.com/v1/tracks/4dmCMIu39DqyalBCENwSxk",
      "id" : "4dmCMIu39DqyalBCENwSxk",
      "name" : "Highlights",
      "popularity" : 70,
      "preview_url" : "https://p.scdn.co/mp3-preview/afc774e2ed114335f59039dc88aedc8ffa54022d",
      "track_number" : 7,
      "type" : "track",
      "uri" : "spotify:track:4dmCMIu39DqyalBCENwSxk"
    }
  }, {
    "added_at" : "2016-04-04T19:10:17Z",
    "track" : {
      "album" : {
        "album_type" : "album",
        "available_markets" : [ "CA", "MX", "US" ],
        "external_urls" : {
          "spotify" : "https://open.spotify.com/album/2f4cvZmkZqlzjNf7bcmeCb"
        },
        "href" : "https://api.spotify.com/v1/albums/2f4cvZmkZqlzjNf7bcmeCb",
        "id" : "2f4cvZmkZqlzjNf7bcmeCb",
        "images" : [ {
          "height" : 640,
          "url" : "https://i.scdn.co/image/443372cd2c6d4245833fb46ac1c5dabca00c78a9",
          "width" : 640
        }, {
          "height" : 300,
          "url" : "https://i.scdn.co/image/d2351cd8009379e06421c31fe7de3f87178b4e66",
          "width" : 300
        }, {
          "height" : 64,
          "url" : "https://i.scdn.co/image/4c9fcc4c6f9408a4111f963143d8d13fb58df2b3",
          "width" : 64
        } ],
        "name" : "The Life Of Pablo",
        "type" : "album",
        "uri" : "spotify:album:2f4cvZmkZqlzjNf7bcmeCb"
      },
      "artists" : [ {
        "external_urls" : {
          "spotify" : "https://open.spotify.com/artist/5K4W6rqBFWDnAN6FQUkS6x"
        },
        "href" : "https://api.spotify.com/v1/artists/5K4W6rqBFWDnAN6FQUkS6x",
        "id" : "5K4W6rqBFWDnAN6FQUkS6x",
        "name" : "Kanye West",
        "type" : "artist",
        "uri" : "spotify:artist:5K4W6rqBFWDnAN6FQUkS6x"
      } ],
      "available_markets" : [ "CA", "MX", "US" ],
      "disc_number" : 1,
      "duration_ms" : 123386,
      "explicit" : true,
      "external_ids" : {
        "isrc" : "USUM71603077"
      },
      "external_urls" : {
        "spotify" : "https://open.spotify.com/track/1r53kDsIVmyTwdjeGRAber"
      },
      "href" : "https://api.spotify.com/v1/tracks/1r53kDsIVmyTwdjeGRAber",
      "id" : "1r53kDsIVmyTwdjeGRAber",
      "name" : "Freestyle 4",
      "popularity" : 70,
      "preview_url" : "https://p.scdn.co/mp3-preview/402b6590e70855bd209d30df737b34185da4a36f",
      "track_number" : 8,
      "type" : "track",
      "uri" : "spotify:track:1r53kDsIVmyTwdjeGRAber"
    }
  }, {
    "added_at" : "2016-04-04T19:10:17Z",
    "track" : {
      "album" : {
        "album_type" : "album",
        "available_markets" : [ "CA", "MX", "US" ],
        "external_urls" : {
          "spotify" : "https://open.spotify.com/album/2f4cvZmkZqlzjNf7bcmeCb"
        },
        "href" : "https://api.spotify.com/v1/albums/2f4cvZmkZqlzjNf7bcmeCb",
        "id" : "2f4cvZmkZqlzjNf7bcmeCb",
        "images" : [ {
          "height" : 640,
          "url" : "https://i.scdn.co/image/443372cd2c6d4245833fb46ac1c5dabca00c78a9",
          "width" : 640
        }, {
          "height" : 300,
          "url" : "https://i.scdn.co/image/d2351cd8009379e06421c31fe7de3f87178b4e66",
          "width" : 300
        }, {
          "height" : 64,
          "url" : "https://i.scdn.co/image/4c9fcc4c6f9408a4111f963143d8d13fb58df2b3",
          "width" : 64
        } ],
        "name" : "The Life Of Pablo",
        "type" : "album",
        "uri" : "spotify:album:2f4cvZmkZqlzjNf7bcmeCb"
      },
      "artists" : [ {
        "external_urls" : {
          "spotify" : "https://open.spotify.com/artist/5K4W6rqBFWDnAN6FQUkS6x"
        },
        "href" : "https://api.spotify.com/v1/artists/5K4W6rqBFWDnAN6FQUkS6x",
        "id" : "5K4W6rqBFWDnAN6FQUkS6x",
        "name" : "Kanye West",
        "type" : "artist",
        "uri" : "spotify:artist:5K4W6rqBFWDnAN6FQUkS6x"
      } ],
      "available_markets" : [ "CA", "MX", "US" ],
      "disc_number" : 1,
      "duration_ms" : 44826,
      "explicit" : true,
      "external_ids" : {
        "isrc" : "USUM71603050"
      },
      "external_urls" : {
        "spotify" : "https://open.spotify.com/track/0sM1hCHeHkGEGo4XXktCHg"
      },
      "href" : "https://api.spotify.com/v1/tracks/0sM1hCHeHkGEGo4XXktCHg",
      "id" : "0sM1hCHeHkGEGo4XXktCHg",
      "name" : "I Love Kanye",
      "popularity" : 70,
      "preview_url" : "https://p.scdn.co/mp3-preview/c7c412b48873ea7affb559469dc8068fd529a5df",
      "track_number" : 9,
      "type" : "track",
      "uri" : "spotify:track:0sM1hCHeHkGEGo4XXktCHg"
    }
  }, {
    "added_at" : "2016-04-04T19:10:17Z",
    "track" : {
      "album" : {
        "album_type" : "album",
        "available_markets" : [ "CA", "MX", "US" ],
        "external_urls" : {
          "spotify" : "https://open.spotify.com/album/2f4cvZmkZqlzjNf7bcmeCb"
        },
        "href" : "https://api.spotify.com/v1/albums/2f4cvZmkZqlzjNf7bcmeCb",
        "id" : "2f4cvZmkZqlzjNf7bcmeCb",
        "images" : [ {
          "height" : 640,
          "url" : "https://i.scdn.co/image/443372cd2c6d4245833fb46ac1c5dabca00c78a9",
          "width" : 640
        }, {
          "height" : 300,
          "url" : "https://i.scdn.co/image/d2351cd8009379e06421c31fe7de3f87178b4e66",
          "width" : 300
        }, {
          "height" : 64,
          "url" : "https://i.scdn.co/image/4c9fcc4c6f9408a4111f963143d8d13fb58df2b3",
          "width" : 64
        } ],
        "name" : "The Life Of Pablo",
        "type" : "album",
        "uri" : "spotify:album:2f4cvZmkZqlzjNf7bcmeCb"
      },
      "artists" : [ {
        "external_urls" : {
          "spotify" : "https://open.spotify.com/artist/5K4W6rqBFWDnAN6FQUkS6x"
        },
        "href" : "https://api.spotify.com/v1/artists/5K4W6rqBFWDnAN6FQUkS6x",
        "id" : "5K4W6rqBFWDnAN6FQUkS6x",
        "name" : "Kanye West",
        "type" : "artist",
        "uri" : "spotify:artist:5K4W6rqBFWDnAN6FQUkS6x"
      } ],
      "available_markets" : [ "CA", "MX", "US" ],
      "disc_number" : 1,
      "duration_ms" : 181573,
      "explicit" : true,
      "external_ids" : {
        "isrc" : "USUM71603079"
      },
      "external_urls" : {
        "spotify" : "https://open.spotify.com/track/0T3ruvJQNQeTyK7tWKvdoX"
      },
      "href" : "https://api.spotify.com/v1/tracks/0T3ruvJQNQeTyK7tWKvdoX",
      "id" : "0T3ruvJQNQeTyK7tWKvdoX",
      "name" : "Waves",
      "popularity" : 74,
      "preview_url" : "https://p.scdn.co/mp3-preview/b6218fccd7875053ddbc6af2985f805e6b6414fe",
      "track_number" : 10,
      "type" : "track",
      "uri" : "spotify:track:0T3ruvJQNQeTyK7tWKvdoX"
    }
  } ],
  "limit" : 10,
  "next" : "https://api.spotify.com/v1/me/tracks?offset=10&limit=10",
  "offset" : 0,
  "previous" : null,
  "total" : 481
}